[2018-05-17 00:50:19] => HAS CAPTCHA!
[2018-05-17 00:53:53] => HAS CAPTCHA!
[2018-05-17 00:54:05] => HAS CAPTCHA!
[2018-05-17 00:54:37] => HAS CAPTCHA!
[2018-05-17 00:55:31] => HAS CAPTCHA!
[2018-05-17 00:56:15] => HAS CAPTCHA!
[2018-05-17 00:56:47] => HAS CAPTCHA!
[2018-05-17 01:07:23] => HAS CAPTCHA!
[2018-05-17 01:08:11] => HAS CAPTCHA!
[2018-05-17 01:10:38] => HAS CAPTCHA!
[2018-05-17 01:11:24] => HAS CAPTCHA!
[2018-05-17 01:11:43] => HAS CAPTCHA!
[2018-05-17 01:11:55] => HAS CAPTCHA!
[2018-05-17 01:12:07] => HAS CAPTCHA!
[2018-05-17 01:12:19] => HAS CAPTCHA!
[2018-05-17 01:12:25] => HAS CAPTCHA!
[2018-05-17 01:12:39] => HAS CAPTCHA!
[2018-05-17 01:12:50] => HAS CAPTCHA!
[2018-05-17 01:13:02] => HAS CAPTCHA!
[2018-05-17 01:13:09] => HAS CAPTCHA!
[2018-05-17 01:13:15] => HAS CAPTCHA!
[2018-05-17 01:13:26] => HAS CAPTCHA!
[2018-05-17 01:13:39] => HAS CAPTCHA!
[2018-05-17 01:13:51] => HAS CAPTCHA!
[2018-05-17 01:13:57] => HAS CAPTCHA!
[2018-05-17 01:14:09] => HAS CAPTCHA!
[2018-05-17 01:14:21] => HAS CAPTCHA!
[2018-05-17 01:26:00] => HAS CAPTCHA!
[2018-05-17 01:26:35] => HAS CAPTCHA!
[2018-05-17 01:26:42] => HAS CAPTCHA!
[2018-05-17 01:26:54] => HAS CAPTCHA!
[2018-05-17 01:27:06] => HAS CAPTCHA!
[2018-05-17 01:27:12] => HAS CAPTCHA!
[2018-05-17 01:30:50] => HAS CAPTCHA!
[2018-05-17 01:43:01] => HAS CAPTCHA!
[2018-05-17 01:43:20] => HAS CAPTCHA!
[2018-05-17 01:43:26] => HAS CAPTCHA!
[2018-05-17 01:43:40] => HAS CAPTCHA!
[2018-05-17 14:57:15] => HAS CAPTCHA!
[2018-05-17 14:57:56] => HAS CAPTCHA!
[2018-05-17 14:58:13] => HAS CAPTCHA!
[2018-05-17 14:58:30] => HAS CAPTCHA!
[2018-05-17 22:25:07] => HAS CAPTCHA!
[2018-05-17 22:32:02] => HAS CAPTCHA!
[2018-05-17 22:32:39] => HAS CAPTCHA!
[2018-05-17 22:32:56] => HAS CAPTCHA!
[2018-05-17 22:33:07] => HAS CAPTCHA!
[2018-05-17 22:36:22] => HAS CAPTCHA!
[2018-05-17 22:41:14] => HAS CAPTCHA!
[2018-05-17 22:45:08] => HAS CAPTCHA!
[2018-05-17 22:45:58] => HAS CAPTCHA!
[2018-05-17 22:46:27] => HAS CAPTCHA!
[2018-05-17 23:49:04] => HAS CAPTCHA!
[2018-05-17 23:49:36] => HAS CAPTCHA!
[2018-05-17 23:49:53] => HAS CAPTCHA!
[2018-05-17 23:50:06] => HAS CAPTCHA!
[2018-05-17 23:51:14] => HAS CAPTCHA!
[2018-05-17 23:51:51] => HAS CAPTCHA!
[2018-05-17 23:52:29] => HAS CAPTCHA!
[2018-05-17 23:52:47] => HAS CAPTCHA!
[2018-05-17 23:53:03] => HAS CAPTCHA!
[2018-05-18 00:08:01] => HAS CAPTCHA!
[2018-05-18 00:08:46] => HAS CAPTCHA!
[2018-05-18 00:16:06] => HAS CAPTCHA!
[2018-05-18 00:16:57] => HAS CAPTCHA!
[2018-05-18 00:23:35] => HAS CAPTCHA!
[2018-05-18 00:24:27] => HAS CAPTCHA!
[2018-05-18 00:27:47] => HAS CAPTCHA!
[2018-05-18 00:29:44] => HAS CAPTCHA!
[2018-05-18 00:36:59] => HAS CAPTCHA!
[2018-05-18 00:40:27] => HAS CAPTCHA!
[2018-05-18 00:41:14] => HAS CAPTCHA!
[2018-05-18 00:44:46] => HAS CAPTCHA!
[2018-05-18 00:45:24] => HAS CAPTCHA!
[2018-05-18 00:45:41] => HAS CAPTCHA!
[2018-05-18 00:45:56] => HAS CAPTCHA!
[2018-05-18 00:47:17] => HAS CAPTCHA!
[2018-05-18 00:48:04] => HAS CAPTCHA!
[2018-05-18 00:48:42] => HAS CAPTCHA!
[2018-05-18 00:49:13] => HAS CAPTCHA!
[2018-05-18 00:49:52] => HAS CAPTCHA!
[2018-05-18 00:50:28] => HAS CAPTCHA!
[2018-05-18 00:51:01] => HAS CAPTCHA!
[2018-05-18 00:51:34] => HAS CAPTCHA!
[2018-05-18 00:52:09] => HAS CAPTCHA!
[2018-05-18 00:52:41] => HAS CAPTCHA!
[2018-05-18 00:58:00] => HAS CAPTCHA!
[2018-05-18 00:58:45] => HAS CAPTCHA!
[2018-05-18 00:59:23] => HAS CAPTCHA!
[2018-05-18 00:59:59] => HAS CAPTCHA!
[2018-05-18 01:00:32] => HAS CAPTCHA!
[2018-05-18 01:01:14] => HAS CAPTCHA!
[2018-05-18 01:01:48] => HAS CAPTCHA!
[2018-05-18 01:02:26] => HAS CAPTCHA!
[2018-05-18 01:03:07] => HAS CAPTCHA!
[2018-05-18 01:03:45] => HAS CAPTCHA!
[2018-05-18 01:04:22] => HAS CAPTCHA!
[2018-05-18 01:04:59] => HAS CAPTCHA!
[2018-05-18 01:05:39] => HAS CAPTCHA!
[2018-05-18 01:06:21] => HAS CAPTCHA!
[2018-05-18 01:09:58] => HAS CAPTCHA!
[2018-05-18 01:10:37] => HAS CAPTCHA!
[2018-05-18 01:11:14] => HAS CAPTCHA!
[2018-05-18 01:11:52] => HAS CAPTCHA!
[2018-05-18 01:12:29] => HAS CAPTCHA!
[2018-05-18 01:13:08] => HAS CAPTCHA!
[2018-05-18 01:13:45] => HAS CAPTCHA!
[2018-05-18 01:14:23] => HAS CAPTCHA!
[2018-05-18 01:15:03] => HAS CAPTCHA!
[2018-05-18 01:15:41] => HAS CAPTCHA!
[2018-05-18 01:16:13] => HAS CAPTCHA!
[2018-05-18 01:16:29] => HAS CAPTCHA!
[2018-05-18 01:16:45] => HAS CAPTCHA!
[2018-05-18 01:17:02] => HAS CAPTCHA!
[2018-05-18 01:17:12] => HAS CAPTCHA!
[2018-05-18 01:17:29] => HAS CAPTCHA!
[2018-05-18 01:17:45] => HAS CAPTCHA!
[2018-05-18 01:18:02] => HAS CAPTCHA!
[2018-05-18 01:18:21] => HAS CAPTCHA!
[2018-05-18 01:18:41] => HAS CAPTCHA!
[2018-05-18 01:18:59] => HAS CAPTCHA!
[2018-05-18 01:19:15] => HAS CAPTCHA!
[2018-05-18 01:19:28] => HAS CAPTCHA!
[2018-05-18 01:19:41] => HAS CAPTCHA!
[2018-05-18 01:19:48] => HAS CAPTCHA!
[2018-05-18 01:20:01] => HAS CAPTCHA!
[2018-05-18 01:20:15] => HAS CAPTCHA!
[2018-05-18 01:20:28] => HAS CAPTCHA!
[2018-05-18 01:20:46] => HAS CAPTCHA!
[2018-05-18 01:20:59] => HAS CAPTCHA!
[2018-05-18 01:21:12] => HAS CAPTCHA!
[2018-05-18 01:21:26] => HAS CAPTCHA!
[2018-05-18 01:21:39] => HAS CAPTCHA!
[2018-05-18 01:21:54] => HAS CAPTCHA!
[2018-05-18 01:22:06] => HAS CAPTCHA!
[2018-05-18 01:22:19] => HAS CAPTCHA!
[2018-05-18 01:22:26] => HAS CAPTCHA!
[2018-05-18 01:22:40] => HAS CAPTCHA!
[2018-05-18 01:22:46] => HAS CAPTCHA!
[2018-05-18 01:22:59] => HAS CAPTCHA!
[2018-05-18 01:23:12] => HAS CAPTCHA!
[2018-05-18 01:23:25] => HAS CAPTCHA!
[2018-05-18 01:23:39] => HAS CAPTCHA!
[2018-05-18 01:23:52] => HAS CAPTCHA!
[2018-05-18 01:24:05] => HAS CAPTCHA!
[2018-05-18 01:24:18] => HAS CAPTCHA!
[2018-05-18 01:24:30] => HAS CAPTCHA!
[2018-05-18 01:24:38] => HAS CAPTCHA!
[2018-05-18 01:24:50] => HAS CAPTCHA!
[2018-05-18 01:25:03] => HAS CAPTCHA!
[2018-05-18 01:25:16] => HAS CAPTCHA!
[2018-05-18 01:25:28] => HAS CAPTCHA!
[2018-05-18 01:25:40] => HAS CAPTCHA!
[2018-05-18 01:25:53] => HAS CAPTCHA!
[2018-05-18 01:26:07] => HAS CAPTCHA!
[2018-05-18 01:26:20] => HAS CAPTCHA!
[2018-05-18 01:26:34] => HAS CAPTCHA!
[2018-05-18 01:26:47] => HAS CAPTCHA!
[2018-05-18 01:27:00] => HAS CAPTCHA!
[2018-05-18 01:27:07] => HAS CAPTCHA!
[2018-05-18 01:27:14] => HAS CAPTCHA!
[2018-05-18 01:27:27] => HAS CAPTCHA!
[2018-05-18 01:27:34] => HAS CAPTCHA!
[2018-05-18 01:27:48] => HAS CAPTCHA!
[2018-05-18 01:28:02] => HAS CAPTCHA!
[2018-05-18 01:28:08] => HAS CAPTCHA!
[2018-05-18 01:28:21] => HAS CAPTCHA!
[2018-05-18 01:28:34] => HAS CAPTCHA!
[2018-05-18 01:28:47] => HAS CAPTCHA!
[2018-05-18 01:28:59] => HAS CAPTCHA!
[2018-05-18 01:29:06] => HAS CAPTCHA!
[2018-05-18 01:29:19] => HAS CAPTCHA!
[2018-05-18 01:29:33] => HAS CAPTCHA!
[2018-05-18 01:29:46] => HAS CAPTCHA!
[2018-05-18 01:29:53] => HAS CAPTCHA!
[2018-05-18 01:30:06] => HAS CAPTCHA!
[2018-05-18 01:30:18] => HAS CAPTCHA!
[2018-05-18 01:30:32] => HAS CAPTCHA!
[2018-05-18 01:30:45] => HAS CAPTCHA!
[2018-05-18 01:40:32] => HAS CAPTCHA!
[2018-05-18 01:41:10] => HAS CAPTCHA!
[2018-05-18 01:41:52] => HAS CAPTCHA!
[2018-05-18 01:42:40] => HAS CAPTCHA!
[2018-05-18 01:43:21] => HAS CAPTCHA!
[2018-05-18 01:44:07] => HAS CAPTCHA!
[2018-05-18 01:44:58] => HAS CAPTCHA!
[2018-05-18 01:45:37] => HAS CAPTCHA!
[2018-05-18 01:46:36] => HAS CAPTCHA!
[2018-05-18 01:47:48] => HAS CAPTCHA!
[2018-05-18 01:48:48] => HAS CAPTCHA!
[2018-05-18 01:49:33] => HAS CAPTCHA!
[2018-05-18 01:50:55] => HAS CAPTCHA!
[2018-05-18 01:51:47] => HAS CAPTCHA!
[2018-05-18 01:52:32] => HAS CAPTCHA!
[2018-05-18 01:53:18] => HAS CAPTCHA!
[2018-05-18 01:54:12] => HAS CAPTCHA!
[2018-05-18 01:55:08] => HAS CAPTCHA!
[2018-05-18 01:56:04] => HAS CAPTCHA!
[2018-05-18 01:57:55] => HAS CAPTCHA!
[2018-05-18 01:58:42] => HAS CAPTCHA!
[2018-05-18 01:59:35] => HAS CAPTCHA!
[2018-05-18 02:01:08] => HAS CAPTCHA!
[2018-05-18 02:02:03] => HAS CAPTCHA!
[2018-05-18 02:03:04] => HAS CAPTCHA!
[2018-05-18 02:03:44] => HAS CAPTCHA!
[2018-05-18 02:04:33] => HAS CAPTCHA!
[2018-05-18 02:05:34] => HAS CAPTCHA!
[2018-05-18 02:06:32] => HAS CAPTCHA!
[2018-05-18 02:06:45] => HAS CAPTCHA!
[2018-05-18 02:07:36] => HAS CAPTCHA!
[2018-05-18 02:07:43] => HAS CAPTCHA!
[2018-05-18 02:08:31] => HAS CAPTCHA!
[2018-05-18 02:09:29] => HAS CAPTCHA!
[2018-05-18 02:10:33] => HAS CAPTCHA!
[2018-05-18 02:11:39] => HAS CAPTCHA!
[2018-05-18 02:13:19] => HAS CAPTCHA!
[2018-05-18 02:14:12] => HAS CAPTCHA!
[2018-05-18 02:15:42] => HAS CAPTCHA!
[2018-05-18 02:16:33] => HAS CAPTCHA!
[2018-05-18 02:17:19] => HAS CAPTCHA!
[2018-05-18 02:17:48] => HAS CAPTCHA!
[2018-05-18 02:18:32] => HAS CAPTCHA!
[2018-05-18 02:19:49] => HAS CAPTCHA!
[2018-05-18 02:20:41] => HAS CAPTCHA!
[2018-05-18 02:22:21] => HAS CAPTCHA!
[2018-05-18 02:23:05] => HAS CAPTCHA!
[2018-05-18 02:23:50] => HAS CAPTCHA!
[2018-05-18 02:24:38] => HAS CAPTCHA!
[2018-05-18 02:25:32] => HAS CAPTCHA!
[2018-05-18 02:26:25] => HAS CAPTCHA!
[2018-05-18 02:27:19] => HAS CAPTCHA!
[2018-05-18 02:28:10] => HAS CAPTCHA!
[2018-05-18 02:29:21] => HAS CAPTCHA!
[2018-05-18 02:30:22] => HAS CAPTCHA!
[2018-05-18 02:31:10] => HAS CAPTCHA!
[2018-05-18 02:31:44] => HAS CAPTCHA!
[2018-05-18 02:32:45] => HAS CAPTCHA!
[2018-05-18 02:33:56] => HAS CAPTCHA!
[2018-05-18 02:34:58] => HAS CAPTCHA!
[2018-05-18 02:35:47] => HAS CAPTCHA!
[2018-05-18 02:36:26] => HAS CAPTCHA!
[2018-05-18 02:37:16] => HAS CAPTCHA!
[2018-05-18 02:38:00] => HAS CAPTCHA!
[2018-05-18 02:38:38] => HAS CAPTCHA!
[2018-05-18 02:39:24] => HAS CAPTCHA!
[2018-05-18 02:40:10] => HAS CAPTCHA!
[2018-05-18 02:41:06] => HAS CAPTCHA!
[2018-05-18 02:41:49] => HAS CAPTCHA!
[2018-05-18 02:42:26] => HAS CAPTCHA!
[2018-05-18 02:43:54] => HAS CAPTCHA!
[2018-05-18 02:44:40] => HAS CAPTCHA!
[2018-05-18 02:45:27] => HAS CAPTCHA!
[2018-05-18 02:46:21] => HAS CAPTCHA!
[2018-05-18 02:47:05] => HAS CAPTCHA!
[2018-05-18 02:47:45] => HAS CAPTCHA!
[2018-05-18 02:48:44] => HAS CAPTCHA!
[2018-05-18 02:49:22] => HAS CAPTCHA!
[2018-05-18 02:50:14] => HAS CAPTCHA!
[2018-05-18 02:51:18] => HAS CAPTCHA!
[2018-05-18 02:51:59] => HAS CAPTCHA!
[2018-05-18 02:52:41] => HAS CAPTCHA!
[2018-05-18 02:53:34] => HAS CAPTCHA!
[2018-05-18 02:54:15] => HAS CAPTCHA!
[2018-05-18 02:54:59] => HAS CAPTCHA!
[2018-05-18 02:55:46] => HAS CAPTCHA!
[2018-05-18 02:56:41] => HAS CAPTCHA!
[2018-05-18 02:57:40] => HAS CAPTCHA!
[2018-05-18 02:58:45] => HAS CAPTCHA!
[2018-05-18 02:59:36] => HAS CAPTCHA!
[2018-05-18 03:00:22] => HAS CAPTCHA!
[2018-05-18 03:01:28] => HAS CAPTCHA!
[2018-05-18 03:02:31] => HAS CAPTCHA!
[2018-05-18 03:03:21] => HAS CAPTCHA!
[2018-05-18 03:04:13] => HAS CAPTCHA!
[2018-05-18 03:04:57] => HAS CAPTCHA!
[2018-05-18 03:05:39] => HAS CAPTCHA!
[2018-05-18 11:01:34] => HAS CAPTCHA!
[2018-05-18 11:21:11] => HAS CAPTCHA!
[2018-05-18 11:41:42] => HAS CAPTCHA!
[2018-05-18 11:50:47] => HAS CAPTCHA!
[2018-05-18 12:23:34] => HAS CAPTCHA!
[2018-05-18 12:26:24] => HAS CAPTCHA!
[2018-05-18 12:33:09] => HAS CAPTCHA!
[2018-05-18 12:36:13] => HAS CAPTCHA!
[2018-05-18 12:42:28] => HAS CAPTCHA!
[2018-05-18 12:45:19] => HAS CAPTCHA!
[2018-05-18 12:48:10] => HAS CAPTCHA!
[2018-05-18 12:51:24] => HAS CAPTCHA!
[2018-05-18 12:54:42] => HAS CAPTCHA!
[2018-05-18 12:57:39] => HAS CAPTCHA!
[2018-05-18 12:58:46] => HAS CAPTCHA!
[2018-05-18 13:05:12] => HAS CAPTCHA!
[2018-05-18 13:11:42] => HAS CAPTCHA!
[2018-05-18 13:12:31] => HAS CAPTCHA!
[2018-05-18 13:19:46] => HAS CAPTCHA!
[2018-05-18 13:26:30] => HAS CAPTCHA!
[2018-05-18 13:26:44] => HAS CAPTCHA!
[2018-05-18 13:33:29] => HAS CAPTCHA!
[2018-05-18 13:36:38] => HAS CAPTCHA!
[2018-05-18 13:37:17] => HAS CAPTCHA!
[2018-05-18 13:43:47] => HAS CAPTCHA!
[2018-05-18 13:50:19] => HAS CAPTCHA!
[2018-05-18 13:53:20] => HAS CAPTCHA!
[2018-05-18 13:56:27] => HAS CAPTCHA!
[2018-05-18 14:03:20] => HAS CAPTCHA!
[2018-05-18 14:10:21] => HAS CAPTCHA!
[2018-05-18 14:17:11] => HAS CAPTCHA!
[2018-05-18 14:20:04] => HAS CAPTCHA!
[2018-05-18 14:22:53] => HAS CAPTCHA!
[2018-05-18 14:25:39] => HAS CAPTCHA!
[2018-05-18 14:26:37] => HAS CAPTCHA!
[2018-05-18 14:33:03] => HAS CAPTCHA!
[2018-05-18 14:36:04] => HAS CAPTCHA!
[2018-05-18 14:37:16] => HAS CAPTCHA!
[2018-05-18 14:43:55] => HAS CAPTCHA!
[2018-05-18 14:50:24] => HAS CAPTCHA!
[2018-05-18 14:56:41] => HAS CAPTCHA!
[2018-05-18 15:03:09] => HAS CAPTCHA!
[2018-05-18 15:06:14] => HAS CAPTCHA!
[2018-05-18 15:06:54] => HAS CAPTCHA!
[2018-05-18 15:13:14] => HAS CAPTCHA!
[2018-05-18 15:16:18] => HAS CAPTCHA!
[2018-05-18 15:22:55] => HAS CAPTCHA!
[2018-05-18 15:29:59] => HAS CAPTCHA!
[2018-05-18 15:36:35] => HAS CAPTCHA!
[2018-05-18 15:39:29] => HAS CAPTCHA!
[2018-05-18 15:40:15] => HAS CAPTCHA!
[2018-05-18 15:46:39] => HAS CAPTCHA!
[2018-05-18 15:49:33] => HAS CAPTCHA!
[2018-05-18 15:53:13] => HAS CAPTCHA!
[2018-05-18 16:00:10] => HAS CAPTCHA!
[2018-05-18 16:03:01] => HAS CAPTCHA!
[2018-05-18 16:03:50] => HAS CAPTCHA!
[2018-05-18 16:06:58] => HAS CAPTCHA!
[2018-05-18 16:10:14] => HAS CAPTCHA!
[2018-05-18 16:16:52] => HAS CAPTCHA!
[2018-05-18 16:23:22] => HAS CAPTCHA!
[2018-05-18 16:29:43] => HAS CAPTCHA!
[2018-05-18 16:36:07] => HAS CAPTCHA!
[2018-05-18 16:36:43] => HAS CAPTCHA!
[2018-05-18 16:40:00] => HAS CAPTCHA!
[2018-05-18 16:46:32] => HAS CAPTCHA!
[2018-05-18 16:52:55] => HAS CAPTCHA!
[2018-05-18 16:56:05] => HAS CAPTCHA!
[2018-05-18 16:56:49] => HAS CAPTCHA!
[2018-05-18 16:59:48] => HAS CAPTCHA!
[2018-05-18 17:06:41] => HAS CAPTCHA!
[2018-05-18 17:13:07] => HAS CAPTCHA!
[2018-05-18 17:15:50] => HAS CAPTCHA!
[2018-05-18 17:18:59] => HAS CAPTCHA!
[2018-05-18 17:25:16] => HAS CAPTCHA!
[2018-05-18 17:31:52] => HAS CAPTCHA!
[2018-05-18 17:38:22] => HAS CAPTCHA!
[2018-05-18 17:41:13] => HAS CAPTCHA!
[2018-05-18 17:45:00] => HAS CAPTCHA!
[2018-05-18 17:51:11] => HAS CAPTCHA!
[2018-05-18 17:54:20] => HAS CAPTCHA!
[2018-05-18 18:00:49] => HAS CAPTCHA!
[2018-05-18 18:03:49] => HAS CAPTCHA!
[2018-05-18 18:10:03] => HAS CAPTCHA!
[2018-05-18 18:12:54] => HAS CAPTCHA!
[2018-05-18 18:19:20] => HAS CAPTCHA!
[2018-05-18 18:25:58] => HAS CAPTCHA!
[2018-05-18 18:32:30] => HAS CAPTCHA!
[2018-05-18 18:38:53] => HAS CAPTCHA!
[2018-05-18 18:45:25] => HAS CAPTCHA!
[2018-05-18 18:48:28] => HAS CAPTCHA!
[2018-05-18 18:55:01] => HAS CAPTCHA!
[2018-05-18 18:57:44] => HAS CAPTCHA!
[2018-05-18 19:04:16] => HAS CAPTCHA!
[2018-05-18 19:10:58] => HAS CAPTCHA!
[2018-05-18 19:13:55] => HAS CAPTCHA!
[2018-05-18 19:20:29] => HAS CAPTCHA!
[2018-05-18 19:23:23] => HAS CAPTCHA!
[2018-05-18 19:29:44] => HAS CAPTCHA!
[2018-05-18 19:30:27] => HAS CAPTCHA!
[2018-05-18 19:33:21] => HAS CAPTCHA!
[2018-05-18 19:34:00] => HAS CAPTCHA!
[2018-05-18 19:40:21] => HAS CAPTCHA!
[2019-07-30 15:11:05] => HAS CAPTCHA!
[2019-07-30 15:12:11] => HAS CAPTCHA!
[2019-07-30 15:13:00] => HAS CAPTCHA!
[2019-07-30 15:14:07] => HAS CAPTCHA!
[2019-07-30 15:14:59] => HAS CAPTCHA!
[2019-07-30 15:15:53] => HAS CAPTCHA!
[2019-07-30 15:16:45] => HAS CAPTCHA!
[2019-07-30 15:17:55] => HAS CAPTCHA!
[2019-07-30 15:18:50] => HAS CAPTCHA!
[2019-07-30 15:19:41] => HAS CAPTCHA!
[2019-07-30 15:20:34] => HAS CAPTCHA!
[2019-07-30 15:21:48] => HAS CAPTCHA!
[2019-07-30 15:22:45] => HAS CAPTCHA!
[2019-07-30 15:23:45] => HAS CAPTCHA!
[2019-07-30 15:24:39] => HAS CAPTCHA!
[2019-07-30 15:25:30] => HAS CAPTCHA!
[2019-07-30 15:27:05] => HAS CAPTCHA!
[2019-07-30 15:28:11] => HAS CAPTCHA!
[2019-07-30 15:29:05] => HAS CAPTCHA!
[2019-07-30 15:30:10] => HAS CAPTCHA!
[2019-07-30 15:31:11] => HAS CAPTCHA!
[2019-07-30 15:32:05] => HAS CAPTCHA!
[2019-07-30 15:33:04] => HAS CAPTCHA!
[2019-07-30 15:34:28] => HAS CAPTCHA!
[2019-07-30 15:35:35] => HAS CAPTCHA!
[2019-07-30 15:36:10] => HAS CAPTCHA!
[2019-07-30 15:36:30] => HAS CAPTCHA!
[2019-07-30 15:36:55] => HAS CAPTCHA!
[2019-07-30 15:37:15] => HAS CAPTCHA!
[2019-07-30 15:37:46] => HAS CAPTCHA!
[2019-07-30 15:38:11] => HAS CAPTCHA!
[2019-07-30 15:38:37] => HAS CAPTCHA!
[2019-07-30 15:38:55] => HAS CAPTCHA!
[2019-07-30 15:39:55] => HAS CAPTCHA!
[2019-07-30 15:40:22] => HAS CAPTCHA!
[2019-07-30 15:40:44] => HAS CAPTCHA!
[2019-07-30 15:41:04] => HAS CAPTCHA!
[2019-07-30 15:41:27] => HAS CAPTCHA!
[2019-07-30 15:41:50] => HAS CAPTCHA!
[2019-07-30 15:42:16] => HAS CAPTCHA!
[2019-07-30 15:42:40] => HAS CAPTCHA!
[2019-07-30 15:43:17] => HAS CAPTCHA!
[2019-07-30 15:44:06] => HAS CAPTCHA!
[2019-07-30 15:44:49] => HAS CAPTCHA!
[2019-07-30 15:45:13] => HAS CAPTCHA!
[2019-07-30 15:45:54] => HAS CAPTCHA!
[2019-07-30 15:46:12] => HAS CAPTCHA!
[2019-07-30 15:46:31] => HAS CAPTCHA!
[2019-07-30 15:38:37] => HAS CAPTCHA!
[2019-07-30 15:39:01] => HAS CAPTCHA!
[2019-07-30 15:39:32] => HAS CAPTCHA!
[2019-07-30 15:40:06] => HAS CAPTCHA!
[2019-07-30 15:40:52] => HAS CAPTCHA!
[2019-07-30 15:41:26] => HAS CAPTCHA!
[2019-07-30 15:42:52] => HAS CAPTCHA!
[2019-07-30 15:43:22] => HAS CAPTCHA!
[2019-07-30 15:43:42] => HAS CAPTCHA!
[2019-07-30 15:44:07] => HAS CAPTCHA!
[2019-07-30 15:44:32] => HAS CAPTCHA!
[2019-07-30 15:44:53] => HAS CAPTCHA!
[2019-07-30 15:45:19] => HAS CAPTCHA!
[2019-07-30 15:45:52] => HAS CAPTCHA!
[2019-07-30 15:46:47] => HAS CAPTCHA!
[2019-07-30 15:47:37] => HAS CAPTCHA!
[2019-07-30 15:48:12] => HAS CAPTCHA!
[2019-07-30 15:48:41] => HAS CAPTCHA!
[2019-07-30 15:49:41] => HAS CAPTCHA!
[2019-07-30 15:50:22] => HAS CAPTCHA!
[2019-07-30 15:50:49] => HAS CAPTCHA!
[2019-07-30 15:51:34] => HAS CAPTCHA!
[2019-07-30 15:52:07] => HAS CAPTCHA!
[2019-07-30 15:52:34] => HAS CAPTCHA!
[2019-07-30 15:53:10] => HAS CAPTCHA!
[2019-07-30 15:53:45] => HAS CAPTCHA!
[2019-07-30 15:54:31] => HAS CAPTCHA!
[2019-07-30 15:55:04] => HAS CAPTCHA!
[2019-07-30 15:55:33] => HAS CAPTCHA!
[2019-07-30 15:56:08] => HAS CAPTCHA!
[2019-07-30 15:56:35] => HAS CAPTCHA!
[2019-07-30 15:57:01] => HAS CAPTCHA!
[2019-07-30 15:57:33] => HAS CAPTCHA!
[2019-07-30 15:58:05] => HAS CAPTCHA!
[2019-07-30 15:58:46] => HAS CAPTCHA!
[2019-07-30 15:59:34] => HAS CAPTCHA!
[2019-07-30 16:00:03] => HAS CAPTCHA!
[2019-07-30 16:01:17] => HAS CAPTCHA!
[2019-07-30 16:01:52] => HAS CAPTCHA!
[2019-07-30 16:02:23] => HAS CAPTCHA!
[2019-07-30 16:02:56] => HAS CAPTCHA!
[2019-07-30 16:03:29] => HAS CAPTCHA!
[2019-07-30 16:04:23] => HAS CAPTCHA!
[2019-07-30 16:04:52] => HAS CAPTCHA!
[2019-07-30 16:05:07] => HAS CAPTCHA!
[2019-07-30 16:05:25] => HAS CAPTCHA!
[2019-07-30 16:05:40] => HAS CAPTCHA!
[2019-07-30 16:06:19] => HAS CAPTCHA!
[2019-07-30 16:06:43] => HAS CAPTCHA!
[2019-07-30 16:07:04] => HAS CAPTCHA!
[2019-07-30 16:07:22] => HAS CAPTCHA!
[2019-07-30 16:07:38] => HAS CAPTCHA!
[2019-07-30 16:07:59] => HAS CAPTCHA!
[2019-07-30 16:08:22] => HAS CAPTCHA!
[2019-07-30 16:08:55] => HAS CAPTCHA!
[2019-07-30 16:09:13] => HAS CAPTCHA!
[2019-07-30 16:09:48] => HAS CAPTCHA!
[2019-07-30 16:10:09] => HAS CAPTCHA!
[2019-07-30 16:10:39] => HAS CAPTCHA!
[2019-07-30 16:10:58] => HAS CAPTCHA!
[2019-07-30 16:11:27] => HAS CAPTCHA!
[2019-07-30 16:11:47] => HAS CAPTCHA!
[2019-07-30 16:26:35] => HAS CAPTCHA!
[2019-07-30 16:30:13] => HAS CAPTCHA!
[2019-07-30 16:33:06] => HAS CAPTCHA!
[2019-07-30 16:34:04] => HAS CAPTCHA!
[2019-07-30 16:34:55] => HAS CAPTCHA!
[2019-07-30 16:41:46] => HAS CAPTCHA!
[2019-07-30 16:48:20] => HAS CAPTCHA!
[2019-07-30 16:50:08] => HAS CAPTCHA!
[2019-07-30 16:56:55] => HAS CAPTCHA!
[2019-07-30 17:03:35] => HAS CAPTCHA!
[2019-07-30 17:10:20] => HAS CAPTCHA!
[2019-07-30 17:16:59] => HAS CAPTCHA!
[2019-07-30 17:23:32] => HAS CAPTCHA!
[2019-07-30 17:24:26] => HAS CAPTCHA!
[2019-07-30 17:25:13] => HAS CAPTCHA!
[2019-07-30 17:28:11] => HAS CAPTCHA!
[2019-07-30 17:31:11] => HAS CAPTCHA!
[2019-07-30 17:37:24] => HAS CAPTCHA!
[2019-07-30 17:44:11] => HAS CAPTCHA!
[2019-07-30 17:45:01] => HAS CAPTCHA!
[2019-07-30 17:47:59] => HAS CAPTCHA!
[2019-07-30 17:51:47] => HAS CAPTCHA!
[2019-07-30 17:55:23] => HAS CAPTCHA!
[2019-07-30 17:56:45] => HAS CAPTCHA!
[2019-07-30 17:57:55] => HAS CAPTCHA!
[2019-07-30 17:59:14] => HAS CAPTCHA!
[2019-07-30 18:00:24] => HAS CAPTCHA!
[2019-07-30 18:03:57] => HAS CAPTCHA!
[2019-07-30 18:07:11] => HAS CAPTCHA!
[2019-07-30 18:07:58] => HAS CAPTCHA!
[2019-07-30 18:10:36] => HAS CAPTCHA!
[2019-07-30 18:13:23] => HAS CAPTCHA!
[2019-07-30 18:20:02] => HAS CAPTCHA!
[2019-07-30 18:27:19] => HAS CAPTCHA!
[2019-08-13 11:22:37] => HAS CAPTCHA!
[2019-08-13 11:23:28] => HAS CAPTCHA!
[2019-08-13 11:24:11] => HAS CAPTCHA!
[2019-08-13 11:25:00] => HAS CAPTCHA!
[2019-08-13 11:25:39] => HAS CAPTCHA!
[2019-08-13 11:26:19] => HAS CAPTCHA!
[2019-08-13 11:27:02] => HAS CAPTCHA!
[2019-08-13 11:27:49] => HAS CAPTCHA!
[2019-08-13 11:28:25] => HAS CAPTCHA!
[2019-08-13 11:29:03] => HAS CAPTCHA!
[2019-08-13 11:29:47] => HAS CAPTCHA!
[2019-08-13 11:30:28] => HAS CAPTCHA!
[2019-08-13 11:31:07] => HAS CAPTCHA!
[2019-08-13 11:31:49] => HAS CAPTCHA!
[2019-08-13 11:32:25] => HAS CAPTCHA!
[2019-08-13 11:33:07] => HAS CAPTCHA!
[2019-08-13 11:33:53] => HAS CAPTCHA!
[2019-08-13 11:34:51] => HAS CAPTCHA!
[2019-08-13 11:35:30] => HAS CAPTCHA!
[2019-08-13 11:36:45] => HAS CAPTCHA!
[2019-08-13 11:37:21] => HAS CAPTCHA!
[2019-08-13 11:37:59] => HAS CAPTCHA!
[2019-08-13 11:38:42] => HAS CAPTCHA!
[2019-08-13 11:39:21] => HAS CAPTCHA!
[2019-08-13 11:39:58] => HAS CAPTCHA!
[2019-08-13 11:40:09] => HAS CAPTCHA!
[2019-08-13 11:40:22] => HAS CAPTCHA!
[2019-08-13 11:40:37] => HAS CAPTCHA!
[2019-08-13 11:41:05] => HAS CAPTCHA!
[2019-08-13 11:41:27] => HAS CAPTCHA!
[2019-08-13 11:41:44] => HAS CAPTCHA!
[2019-08-13 11:42:02] => HAS CAPTCHA!
[2019-08-13 11:42:18] => HAS CAPTCHA!
[2019-08-13 11:42:29] => HAS CAPTCHA!
[2019-08-13 11:42:52] => HAS CAPTCHA!
[2019-08-13 11:43:11] => HAS CAPTCHA!
[2019-08-13 11:43:25] => HAS CAPTCHA!
[2019-08-13 11:43:44] => HAS CAPTCHA!
[2019-08-13 11:44:02] => HAS CAPTCHA!
[2019-08-13 11:44:21] => HAS CAPTCHA!
[2019-08-13 11:44:40] => HAS CAPTCHA!
[2019-08-13 11:45:02] => HAS CAPTCHA!
[2019-08-13 11:45:37] => HAS CAPTCHA!
[2019-08-13 11:45:52] => HAS CAPTCHA!
[2019-08-13 11:46:11] => HAS CAPTCHA!
[2019-08-13 11:46:25] => HAS CAPTCHA!
[2019-08-13 11:46:48] => HAS CAPTCHA!
[2019-08-13 11:47:06] => HAS CAPTCHA!
[2019-08-13 11:47:25] => HAS CAPTCHA!
[2019-08-13 11:47:40] => HAS CAPTCHA!
[2019-08-13 11:48:06] => HAS CAPTCHA!
[2019-08-13 11:48:22] => HAS CAPTCHA!
[2019-08-13 11:48:46] => HAS CAPTCHA!
[2019-08-13 11:49:05] => HAS CAPTCHA!
[2019-08-13 11:49:21] => HAS CAPTCHA!
[2019-08-13 11:49:35] => HAS CAPTCHA!
[2019-08-13 11:50:05] => HAS CAPTCHA!
[2019-08-13 11:50:20] => HAS CAPTCHA!
[2019-08-13 11:50:57] => HAS CAPTCHA!
[2019-08-13 11:51:16] => HAS CAPTCHA!
[2019-08-13 11:51:34] => HAS CAPTCHA!
[2019-08-13 11:51:49] => HAS CAPTCHA!
[2019-08-13 11:52:08] => HAS CAPTCHA!
[2019-08-13 11:52:30] => HAS CAPTCHA!
[2019-08-13 11:53:23] => HAS CAPTCHA!
[2019-08-13 11:54:04] => HAS CAPTCHA!
[2019-08-13 11:54:21] => HAS CAPTCHA!
[2019-08-13 11:54:59] => HAS CAPTCHA!
[2019-08-13 11:55:17] => HAS CAPTCHA!
[2019-08-13 11:55:36] => HAS CAPTCHA!
[2019-08-13 11:55:55] => HAS CAPTCHA!
[2019-08-13 11:56:10] => HAS CAPTCHA!
[2019-08-13 11:56:25] => HAS CAPTCHA!
[2019-08-13 11:56:55] => HAS CAPTCHA!
[2019-08-13 11:57:13] => HAS CAPTCHA!
[2019-08-13 11:57:27] => HAS CAPTCHA!
[2019-08-13 11:57:46] => HAS CAPTCHA!
[2019-08-13 11:58:04] => HAS CAPTCHA!
[2019-08-13 11:58:58] => HAS CAPTCHA!
[2019-08-13 11:59:16] => HAS CAPTCHA!
[2019-08-13 11:59:45] => HAS CAPTCHA!
[2019-08-13 11:59:56] => HAS CAPTCHA!
[2019-08-13 12:00:14] => HAS CAPTCHA!
[2019-08-13 12:00:29] => HAS CAPTCHA!
[2019-08-13 12:00:45] => HAS CAPTCHA!
[2019-08-13 12:00:57] => HAS CAPTCHA!
[2019-08-13 12:01:11] => HAS CAPTCHA!
[2019-08-13 12:01:33] => HAS CAPTCHA!
[2019-08-13 12:01:45] => HAS CAPTCHA!
[2019-08-13 12:02:00] => HAS CAPTCHA!
[2019-08-13 12:02:16] => HAS CAPTCHA!
[2019-08-13 12:02:27] => HAS CAPTCHA!
[2019-08-13 12:02:39] => HAS CAPTCHA!
[2019-08-13 12:02:50] => HAS CAPTCHA!
[2019-08-13 12:02:58] => HAS CAPTCHA!
[2019-08-13 12:03:14] => HAS CAPTCHA!
[2019-08-13 12:03:25] => HAS CAPTCHA!
[2019-08-13 12:03:36] => HAS CAPTCHA!
[2019-08-13 12:03:48] => HAS CAPTCHA!
[2019-08-13 12:04:13] => HAS CAPTCHA!
[2019-08-13 12:04:53] => HAS CAPTCHA!
[2019-08-13 12:05:05] => HAS CAPTCHA!
[2019-08-13 12:05:25] => HAS CAPTCHA!
[2019-08-13 12:05:43] => HAS CAPTCHA!
[2019-08-13 12:06:01] => HAS CAPTCHA!
[2019-08-13 12:06:18] => HAS CAPTCHA!
[2019-08-13 12:07:09] => HAS CAPTCHA!
[2019-08-13 12:07:27] => HAS CAPTCHA!
[2019-08-13 12:07:39] => HAS CAPTCHA!
[2019-08-13 12:08:04] => HAS CAPTCHA!
[2019-08-13 12:24:49] => HAS CAPTCHA!
[2019-08-13 12:26:51] => HAS CAPTCHA!
[2019-08-13 12:29:49] => HAS CAPTCHA!
[2019-08-13 12:32:56] => HAS CAPTCHA!
[2019-08-13 12:41:19] => HAS CAPTCHA!
[2019-08-13 12:43:41] => HAS CAPTCHA!
[2019-08-13 12:52:38] => HAS CAPTCHA!
[2019-08-13 13:01:13] => HAS CAPTCHA!
[2019-08-13 13:09:47] => HAS CAPTCHA!
[2019-08-13 13:19:27] => HAS CAPTCHA!
[2019-08-13 13:29:12] => HAS CAPTCHA!
[2019-08-13 13:39:02] => HAS CAPTCHA!
[2019-08-13 13:48:52] => HAS CAPTCHA!
[2019-08-13 13:51:01] => HAS CAPTCHA!
[2019-08-13 13:57:35] => HAS CAPTCHA!
[2019-08-13 14:23:01] => HAS CAPTCHA!
[2019-08-13 14:24:10] => HAS CAPTCHA!
[2019-08-13 14:24:56] => HAS CAPTCHA!
[2019-08-13 14:25:36] => HAS CAPTCHA!
[2019-08-13 14:26:27] => HAS CAPTCHA!
[2019-08-13 14:34:08] => HAS CAPTCHA!
[2019-08-16 13:34:31] => HAS CAPTCHA!
[2019-08-16 14:07:59] => HAS CAPTCHA!
[2019-08-16 14:44:01] => HAS CAPTCHA!
[2019-08-16 14:45:09] => HAS CAPTCHA!
[2019-08-16 14:46:17] => HAS CAPTCHA!
[2019-08-16 14:53:48] => HAS CAPTCHA!
[2019-08-16 14:57:38] => HAS CAPTCHA!
[2019-08-16 15:00:44] => HAS CAPTCHA!
[2019-08-16 15:05:52] => HAS CAPTCHA!
[2019-08-16 15:10:21] => HAS CAPTCHA!
[2019-08-16 15:17:51] => HAS CAPTCHA!
[2019-08-16 16:41:13] => HAS CAPTCHA!
[2019-08-16 16:46:12] => HAS CAPTCHA!
[2019-08-16 16:49:27] => HAS CAPTCHA!
[2019-08-16 16:57:59] => HAS CAPTCHA!
[2019-08-16 17:03:36] => HAS CAPTCHA!
[2019-08-19 11:20:09] => HAS CAPTCHA!
[2019-08-19 11:35:23] => HAS CAPTCHA!
[2019-08-19 11:46:01] => HAS CAPTCHA!
[2019-08-19 13:49:20] => HAS CAPTCHA!
[2019-08-19 13:53:33] => HAS CAPTCHA!
[2019-08-19 13:58:14] => HAS CAPTCHA!
[2019-08-19 14:46:20] => HAS CAPTCHA!
[2019-08-19 14:56:13] => HAS CAPTCHA!
[2019-08-19 15:00:47] => HAS CAPTCHA!
[2019-08-19 15:07:12] => HAS CAPTCHA!
[2019-08-19 15:33:27] => HAS CAPTCHA!
[2019-08-19 15:36:04] => HAS CAPTCHA!
[2019-08-19 15:39:29] => HAS CAPTCHA!
[2019-08-19 15:53:26] => HAS CAPTCHA!
[2019-08-19 15:53:35] => HAS CAPTCHA!
[2019-08-19 16:06:45] => HAS CAPTCHA!
[2019-08-19 16:21:00] => HAS CAPTCHA!
[2019-08-19 16:27:21] => HAS CAPTCHA!
[2019-08-19 16:40:25] => HAS CAPTCHA!
[2019-08-19 16:50:47] => HAS CAPTCHA!
[2019-08-19 17:55:02] => HAS CAPTCHA!
[2019-08-20 09:29:03] => HAS CAPTCHA!
[2019-08-20 10:04:57] => HAS CAPTCHA!
[2019-08-20 10:15:09] => HAS CAPTCHA!
[2019-08-20 10:17:56] => HAS CAPTCHA!
[2019-08-20 10:19:35] => HAS CAPTCHA!
[2019-08-20 10:41:03] => HAS CAPTCHA!
[2019-08-20 11:04:09] => HAS CAPTCHA!
[2019-08-20 11:11:50] => HAS CAPTCHA!
[2019-08-20 17:11:05] => HAS CAPTCHA!
[2019-08-20 17:43:19] => HAS CAPTCHA!
[2019-08-20 17:46:50] => HAS CAPTCHA!
[2019-08-20 17:53:12] => HAS CAPTCHA!
[2019-08-20 17:55:43] => HAS CAPTCHA!
[2019-08-20 17:59:39] => HAS CAPTCHA!
[2019-08-20 18:06:58] => HAS CAPTCHA!
[2019-08-21 09:48:15] => HAS CAPTCHA!
[2019-08-21 09:49:09] => HAS CAPTCHA!
[2019-08-21 09:49:59] => HAS CAPTCHA!
[2019-08-21 09:52:13] => HAS CAPTCHA!
[2019-08-21 10:04:34] => HAS CAPTCHA!
[2019-08-21 10:14:28] => HAS CAPTCHA!
