[
  {
    "proxy": false
  },
  {
    "url": "http://sv-natweb-p00.tjgo.jus.br/ssg/Consulta_Tipo.php?opc=nome&inproc=&numrproc=&numrinter=0000&numroab=&siglaoab=GO&ultisn=00000000&nomepessoa=CAIXA+SEGU&B1=Consultar"
  },
  {
    "findElements": {
      "webdriverby": "cssSelector",
      "elementvalue": "table tbody tr td:first-child a",
      "elementsarray": "processos"
    }
  },
  {
    "callMethod": {
      "methodname": "tjGo2Inst",
      "arguments": {
        "elementsarray": "processos",
        "elementsarrayNew": "processosTratados"
      }
    }
  },
  {
    "cleanData": {
      "dataarrayname": "processos"
    }
  },
  {
    "saveData": {
      "filename": "tjgo2inst.json",
      "path": "./data/tribunais-data/",
      "dataarrayname": "processosTratados"
    }
  }
]