[
  {
    "proxy": false
  },
  {
    "url": "https://esaj.tjsp.jus.br/cposg/search.do?conversationId=&paginaConsulta=1&localPesquisa.cdLocal=-1&cbPesquisa=NMPARTE&tipoNuProcesso=UNIFICADO&dePesquisa=CAIXA+SEGUROS&uuidCaptcha=&pbEnviar=Pesquisar"
  },
  {
    "wait": {
      "time": 60,
      "until": {
        "condition": "visibilityOfElementLocated",
        "webdriverby": "id",
        "value": "paginacaoSuperior"
      }
    }
  },
  {
    "callMethod": {
      "methodname": "tjSp2Inst",
      "arguments": {
        "elementsarrayNew": "processosTratados"
      }
    }
  },
  {
    "saveData": {
      "filename": "tjsp2inst.json",
      "path": "./data/tribunais-data/",
      "dataarrayname": "processosTratados"
    }
  }
]